[
{
    "model": "movies.customuser",
    "pk": 1,
    "fields": {
        "password": "pbkdf2_sha256$390000$bfCIm4JcM4SDpNuYTKYHrR$QhOnVh0J8AHskfvueRdyQXB2stldTRjGvlrY3SmyTWM=",
        "last_login": "2023-03-19T12:01:30Z",
        "is_superuser": true,
        "username": "admin",
        "first_name": "",
        "last_name": "",
        "email": "admin@example.com",
        "is_staff": true,
        "is_active": true,
        "date_joined": "2023-03-18T13:34:43Z",
        "groups": [
            3
        ],
        "user_permissions": []
    }
},
{
    "model": "movies.customuser",
    "pk": 2,
    "fields": {
        "password": "pbkdf2_sha256$390000$r1gWNHjuJj7SxcwX0NP9QL$pw1MiZlWe6+Rl/GDgKzt8IE1/OPkOvjGnROVza4C6TA=",
        "last_login": null,
        "is_superuser": false,
        "username": "viktar",
        "first_name": "Viktar",
        "last_name": "Tkjvk",
        "email": "viktar@example.com",
        "is_staff": true,
        "is_active": true,
        "date_joined": "2023-03-18T13:41:46Z",
        "groups": [
            1
        ],
        "user_permissions": []
    }
},
{
    "model": "movies.customuser",
    "pk": 3,
    "fields": {
        "password": "pbkdf2_sha256$390000$2j2xiDglpU03Od1GugHgTV$Gq5YVxcbAzme92GasE8/fb5JrPx34bRdlCKWXhA4VDI=",
        "last_login": null,
        "is_superuser": false,
        "username": "vasia",
        "first_name": "Vasia",
        "last_name": "Kudfjkal",
        "email": "vasia@example.com",
        "is_staff": true,
        "is_active": true,
        "date_joined": "2023-03-18T14:03:20Z",
        "groups": [
            2
        ],
        "user_permissions": []
    }
}
]
